-------------------------------------------------------------------------------
Test set: org.training.reservations.SpringReservationsApplicationTests
-------------------------------------------------------------------------------
Tests run: 1, Failures: 0, Errors: 0, Skipped: 0, Time elapsed: 18.618 sec - in org.training.reservations.SpringReservationsApplicationTests
